Sample	Group	Treatment	Single_group	Single_batch
PreExp_AK11	Pre-exposed to high altitude	Pre-exposed to high altitude	False	False
PreExp_AK18	Pre-exposed to high altitude	Pre-exposed to high altitude	False	False
PreExp_AK22	Pre-exposed to high altitude	Pre-exposed to high altitude	False	False
PreExp_AK24	Pre-exposed to high altitude	Pre-exposed to high altitude	False	False
PreExp_AK32	Pre-exposed to high altitude	Pre-exposed to high altitude	False	False
PreExp_AK9	Pre-exposed to high altitude	Pre-exposed to high altitude	False	False
PreExp_AT1	Pre-exposed to high altitude	Pre-exposed to high altitude	False	False
PreExp_AT13	Pre-exposed to high altitude	Pre-exposed to high altitude	False	False
PreExp_AT18	Pre-exposed to high altitude	Pre-exposed to high altitude	False	False
PreExp_AT26	Pre-exposed to high altitude	Pre-exposed to high altitude	False	False
PreExp_AT28	Pre-exposed to high altitude	Pre-exposed to high altitude	False	False
PreExp_AT29	Pre-exposed to high altitude	Pre-exposed to high altitude	False	False
PreExp_AT31	Pre-exposed to high altitude	Pre-exposed to high altitude	False	False
PreExp_AT33	Pre-exposed to high altitude	Pre-exposed to high altitude	False	False
PreExp_AT4	Pre-exposed to high altitude	Pre-exposed to high altitude	False	False
PreExp_AT7	Pre-exposed to high altitude	Pre-exposed to high altitude	False	False
HAExp3D_BK11	Exposed to high altitude 3 days	Exposed to high altitude 3 days	False	False
HAExp3D_BK18	Exposed to high altitude 3 days	Exposed to high altitude 3 days	False	False
HAExp3D_BK22	Exposed to high altitude 3 days	Exposed to high altitude 3 days	False	False
HAExp3D_BK24	Exposed to high altitude 3 days	Exposed to high altitude 3 days	False	False
HAExp3D_BK32	Exposed to high altitude 3 days	Exposed to high altitude 3 days	False	False
HAExp3D_BK9	Exposed to high altitude 3 days	Exposed to high altitude 3 days	False	False
HAExp3D_BT1	Exposed to high altitude 3 days	Exposed to high altitude 3 days	False	False
HAExp3D_BT13	Exposed to high altitude 3 days	Exposed to high altitude 3 days	False	False
HAExp3D_BT18	Exposed to high altitude 3 days	Exposed to high altitude 3 days	False	False
HAExp3D_BT26	Exposed to high altitude 3 days	Exposed to high altitude 3 days	False	False
HAExp3D_BT28	Exposed to high altitude 3 days	Exposed to high altitude 3 days	False	False
HAExp3D_BT29	Exposed to high altitude 3 days	Exposed to high altitude 3 days	False	False
HAExp3D_BT31	Exposed to high altitude 3 days	Exposed to high altitude 3 days	False	False
HAExp3D_BT33	Exposed to high altitude 3 days	Exposed to high altitude 3 days	False	False
HAExp3D_BT4	Exposed to high altitude 3 days	Exposed to high altitude 3 days	False	False
HAExp3D_BT7	Exposed to high altitude 3 days	Exposed to high altitude 3 days	False	False
HAExp4M_CK10	Exposed to high altitude 4 months	Exposed to high altitude 4 months	False	False
HAExp4M_CK11	Exposed to high altitude 4 months	Exposed to high altitude 4 months	False	False
HAExp4M_CK17	Exposed to high altitude 4 months	Exposed to high altitude 4 months	False	False
HAExp4M_CK18	Exposed to high altitude 4 months	Exposed to high altitude 4 months	False	False
HAExp4M_CK22	Exposed to high altitude 4 months	Exposed to high altitude 4 months	False	False
HAExp4M_CK24	Exposed to high altitude 4 months	Exposed to high altitude 4 months	False	False
HAExp4M_CK32	Exposed to high altitude 4 months	Exposed to high altitude 4 months	False	False
HAExp4M_CK9	Exposed to high altitude 4 months	Exposed to high altitude 4 months	False	False
HAExp4M_CT1	Exposed to high altitude 4 months	Exposed to high altitude 4 months	False	False
HAExp4M_CT13	Exposed to high altitude 4 months	Exposed to high altitude 4 months	False	False
HAExp4M_CT18	Exposed to high altitude 4 months	Exposed to high altitude 4 months	False	False
HAExp4M_CT2	Exposed to high altitude 4 months	Exposed to high altitude 4 months	False	False
HAExp4M_CT26	Exposed to high altitude 4 months	Exposed to high altitude 4 months	False	False
HAExp4M_CT28	Exposed to high altitude 4 months	Exposed to high altitude 4 months	False	False
HAExp4M_CT29	Exposed to high altitude 4 months	Exposed to high altitude 4 months	False	False
HAExp4M_CT31	Exposed to high altitude 4 months	Exposed to high altitude 4 months	False	False
HAExp4M_CT33	Exposed to high altitude 4 months	Exposed to high altitude 4 months	False	False
HAExp4M_CT4	Exposed to high altitude 4 months	Exposed to high altitude 4 months	False	False
HAExp4M_CT7	Exposed to high altitude 4 months	Exposed to high altitude 4 months	False	False
